Efficiently Engineering Bigger Data with Arrow
…
Window functions - via duckdb

library(duckdb)

fare_by_year |>
  group_by(year) |>
  to_duckdb() |>
  mutate(mean_fare = mean(fare_amount)) |> 
  to_arrow() |>
  arrange(desc(fare_amount)) |>
  collect()

# A tibble: 36,345,864 × 3
    year fare_amount mean_fare
   <int>       <dbl>     <dbl>
 1  2021     818283.      13.5
 2  2022     401092.      13.0
 3  2021     398466.      13.5
 4  2021     395854.      13.5
 5  2021       6965       13.5
 6  2021       6960.      13.5
 7  2021       6010       13.5
 8  2021       5954       13.5
 9  2021       4969       13.5
10  2021       3555.      13.5
# ℹ 36,345,854 more rows
…
